<?xml version="1.0" encoding="utf-8"?>
<!-- Generator: Adobe Illustrator 23.0.2, SVG Export Plug-In . SVG Version: 6.00 Build 0)  -->
<svg version="1.1" id="Capa_1" xmlns="http://www.w3.org/2000/svg" xmlns:xlink="http://www.w3.org/1999/xlink" x="0px" y="0px"
	 viewBox="0 0 260 260" style="enable-background:new 0 0 260 260;" xml:space="preserve">
<style type="text/css">
	.st0{fill:#237ABA;}
</style>
<title>5</title>
<path class="st0" d="M210,40v189.9c-1,0-94.2,0.1-147.2,0.1c-17.2,0-16.9-20,0.1-20H190V10H54.2c-2.9,1-6,1.6-8.7,3
	C36.2,17.7,30.7,25.5,30,36c0,0.4,0,0.8,0,1.3C30,91,30,169,30,222.7c0,13,9,23.6,21.6,26.6c2.4,0.5,4.8,0.8,7.3,0.7
	c58,0,113.1,0,171.1,0V40H210z M70,50h80l-20,20H70V50z"/>
</svg>
