<?xml version="1.0" encoding="utf-8"?>
<!-- Generator: Adobe Illustrator 23.0.2, SVG Export Plug-In . SVG Version: 6.00 Build 0)  -->
<svg version="1.1" id="Capa_1" xmlns="http://www.w3.org/2000/svg" xmlns:xlink="http://www.w3.org/1999/xlink" x="0px" y="0px"
	 viewBox="0 0 260 260" style="enable-background:new 0 0 260 260;" xml:space="preserve">
<style type="text/css">
	.st0{fill:#237ABA;}
</style>
<title>3</title>
<path class="st0" d="M122.5,114H114v16h8.5c7.5,0,10.3-2.8,10.3-8.1C132.7,116.8,130,114,122.5,114z"/>
<path class="st0" d="M160,10H46.4c-3.4-0.1-6.3,2.5-6.4,6c0,0,0,0,0,0v227.5c0,3.5,2.9,6.4,6.4,6.5h167.2c3.5-0.1,6.4-3,6.4-6.5
	V69.8L160,10z M92,143c0,10.2-5.2,17.2-18.3,17.2c-7.3,0-11.9-2.5-15.2-5.4l5.2-8.8c2.6,2.4,5.9,4.6,9.5,4.6c4.3,0,6.8-2.7,6.8-9.4
	V104h12V143z M122,140h-8v19h-12v-55h20.2c11.7,0,22.3,3.5,22.3,17.9C144.5,136.6,133,140,122,140z M198,159h-10v-6h-0.1
	c-2.2,4-7.6,7.1-14.5,7.1c-16.4,0-23.8-12.1-23.8-28.6c0-17.2,9.5-28.2,24.7-28.2c8.3,0,17.2,3.4,22,13.1l-10.2,4.6
	c-2.1-4.6-5.8-7.7-11.2-7.7c-4.9,0-13.2,2.6-13.2,18s7.4,19.3,13.2,19.3c6,0,10.1-3.7,11.2-9.7h-8.7l-1.8-9H198V159z"/>
</svg>
