<?xml version="1.0" encoding="utf-8"?>
<!-- Generator: Adobe Illustrator 23.0.2, SVG Export Plug-In . SVG Version: 6.00 Build 0)  -->
<svg version="1.1" id="Capa_1" xmlns="http://www.w3.org/2000/svg" xmlns:xlink="http://www.w3.org/1999/xlink" x="0px" y="0px"
	 viewBox="0 0 260 260" style="enable-background:new 0 0 260 260;" xml:space="preserve">
<style type="text/css">
	.st0{fill:#237ABA;}
</style>
<title>4</title>
<path class="st0" d="M174.1,135c-0.3-0.2-0.6-0.4-0.9-0.6c-6.2-3.7-12.8-6.6-19.7-8.8c-13.6-4.4-27.5-6.2-41.8-5.7
	c-6.6,0.3-13.2,1-19.7,2.5c-2.6,0.6-5.2,1.3-7.8,2.1c-2.5,0.8-4.1,3.1-4.2,5.7c-0.1,2.5,1.5,4.9,3.8,5.9c1.5,0.6,3,0.6,4.4,0.1
	c9.1-2.7,18.5-3.8,27.6-3.9c7.3,0,14.2,0.7,21.1,2c8.9,1.7,17.4,4.3,25.5,8.5c1.8,0.9,3.5,1.9,5.2,2.9c3.1,1.7,6.7,0.8,8.5-2.1
	C177.8,141,177.4,137,174.1,135z"/>
<path class="st0" d="M165.2,158.8c-0.4-0.3-0.8-0.6-1.3-0.8c-5-3-10.3-5.4-15.8-7.2c-10-3.4-20.3-4.8-30.8-4.9
	c-3.6,0.2-7.1,0.3-10.7,0.6c-6.4,0.5-12.6,1.6-18.9,3c-0.5,0.1-1,0.2-1.4,0.4c-2.2,0.9-3.4,3.1-2.9,5.5c0.4,2.3,2.4,3.9,4.8,3.9
	c0.8,0,1.6-0.2,2.3-0.3c7.6-1.7,15.3-2.8,23.1-3.1c6-0.2,12,0.1,18,1c9.7,1.5,18.8,4.6,27.3,9.6c0.4,0.3,0.9,0.5,1.3,0.7
	c2.3,1,5,0.2,6.2-2C167.7,163.1,167.2,160.3,165.2,158.8z"/>
<path class="st0" d="M184.4,107.9c-5.4-3.2-11.1-5.7-17.1-7.8c-14.5-5-29.6-7.3-44.9-7.7c-6.2-0.2-12.4,0-18.6,0.6
	c-5.8,0.5-11.6,1.4-17.4,2.7c-2.3,0.5-4.6,1.1-6.9,1.9c-3.1,1-5,4-4.9,7.1c0.1,3.3,2.2,6.1,5.3,7c1.4,0.4,2.8,0.4,4.3,0
	c2.3-0.6,4.7-1.3,7-1.8c6.4-1.4,12.8-2.1,19.4-2.4c5.7-0.3,11.4-0.3,17,0.1c5.5,0.3,10.9,1,16.3,1.9c7.7,1.4,15.3,3.3,22.6,6.3
	c3.7,1.5,7.2,3.2,10.7,5.2c5.1,2.9,11.2-0.7,11.2-6.5c-0.1-0.5-0.1-1.1-0.2-1.6C187.7,110.6,186.4,109,184.4,107.9z"/>
<path class="st0" d="M130,10C63.7,10,10,63.7,10,130s53.7,120,120,120s120-53.7,120-120S196.3,10,130,10z M130,210
	c-44.2,0-80-35.8-80-80s35.8-80,80-80s80,35.8,80,80S174.2,210,130,210z"/>
</svg>
