<?xml version="1.0" encoding="utf-8"?>
<!-- Generator: Adobe Illustrator 23.0.2, SVG Export Plug-In . SVG Version: 6.00 Build 0)  -->
<svg version="1.1" id="Capa_1" xmlns="http://www.w3.org/2000/svg" xmlns:xlink="http://www.w3.org/1999/xlink" x="0px" y="0px"
	 viewBox="0 0 260 260" style="enable-background:new 0 0 260 260;" xml:space="preserve">
<style type="text/css">
	.st0{fill:#237ABA;}
</style>
<title>5</title>
<polygon class="st0" points="109.5,59.4 79.5,179.4 99.3,179.4 99.3,249.4 119.3,249.4 119.3,179.4 139.3,179.4 139.3,235.1 
	139.3,249.4 159.3,249.4 159.3,179.4 179.5,179.4 149.5,59.4 "/>
<polygon class="st0" points="195.7,138.7 174.7,59.4 159.3,59.4 179.4,133.2 "/>
<polygon class="st0" points="99.7,59.4 84.3,59.4 63.3,138.7 79.6,133.2 "/>
<path class="st0" d="M115.4,43.5c7.8,7.7,20.4,7.7,28.1,0h5.9c0-11,4.1-34.4-20-34.4s-20,23.4-20,34.4H115.4z"/>
</svg>
