<?xml version="1.0" encoding="utf-8"?>
<!-- Generator: Adobe Illustrator 23.0.2, SVG Export Plug-In . SVG Version: 6.00 Build 0)  -->
<svg version="1.1" id="Capa_1" xmlns="http://www.w3.org/2000/svg" xmlns:xlink="http://www.w3.org/1999/xlink" x="0px" y="0px"
	 viewBox="0 0 260 260" style="enable-background:new 0 0 260 260;" xml:space="preserve">
<style type="text/css">
	.st0{fill-rule:evenodd;clip-rule:evenodd;fill:#237ABA;}
</style>
<title>5</title>
<g>
	<path class="st0" d="M30.5,120c11,0,20-9,20-20h-40C10.5,111,19.5,120,30.5,120z"/>
	<path class="st0" d="M70.5,120c11,0,20-9,20-20h-40C50.5,111,59.5,120,70.5,120z"/>
	<path class="st0" d="M110.5,120c11,0,20-9,20-20h-40C90.5,111,99.5,120,110.5,120z"/>
	<path class="st0" d="M150.5,120c11,0,20-9,20-20h-40C130.5,111,139.5,120,150.5,120z"/>
	<path class="st0" d="M190.5,120c11,0,20-9,20-20h-40C170.5,111,179.5,120,190.5,120z"/>
	<path class="st0" d="M210.5,100c0,11,9,20,20,20s20-9,20-20H210.5z"/>
</g>
<polygon class="st0" points="210.5,30 50.5,30 10.5,90 250.5,90 "/>
<path class="st0" d="M210.2,189.9h-160V130H30.5v94c0,3.3,2.7,6,6,6h188c3.3,0,6-2.7,6-6v-94h-20.2V189.9z"/>
<polygon class="st0" points="70.5,169.9 150.3,169.9 170.3,150.2 70.5,150.2 "/>
</svg>
