<?xml version="1.0" encoding="utf-8"?>
<!-- Generator: Adobe Illustrator 23.0.2, SVG Export Plug-In . SVG Version: 6.00 Build 0)  -->
<svg version="1.1" id="Capa_1" xmlns="http://www.w3.org/2000/svg" xmlns:xlink="http://www.w3.org/1999/xlink" x="0px" y="0px"
	 viewBox="0 0 260 260" style="enable-background:new 0 0 260 260;" xml:space="preserve">
<style type="text/css">
	.st0{fill:#237ABA;}
</style>
<title>7</title>
<path class="st0" d="M240,219l-57-57c28.9-40.5,19.5-96.7-21-125.5S65.3,17,36.5,57.5S17,154.1,57.5,183
	c31.3,22.3,73.3,22.3,104.5,0l57,57L240,219z M39,110c0-38.7,31.3-70,70-70s70,31.3,70,70s-31.3,70-70,70S39,148.7,39,110z"/>
<path class="st0" d="M125,116c-9.8,4.8-21.2,4.8-31,0c-15.1,3.8-27.3,15.1-32,30c19.9,26.5,57.5,31.9,84,12c4.5-3.4,8.6-7.5,12-12
	C153.1,130.9,140.5,119.5,125,116z"/>
<circle class="st0" cx="109" cy="85" r="25"/>
</svg>
