<?xml version="1.0" encoding="utf-8"?>
<!-- Generator: Adobe Illustrator 21.1.0, SVG Export Plug-In . SVG Version: 6.00 Build 0)  -->
<svg version="1.1" id="Capa_1" xmlns="http://www.w3.org/2000/svg" xmlns:xlink="http://www.w3.org/1999/xlink" x="0px" y="0px"
	 viewBox="0 0 260 260" style="enable-background:new 0 0 260 260;" xml:space="preserve">
<style type="text/css">
	.st0{fill-rule:evenodd;clip-rule:evenodd;fill:#237ABA;}
</style>
<title>2</title>
<path class="st0" d="M130,10C74.8,10,30,54.8,30,110c0,1,0,2,0,3c2,88.3,91.6,144.7,91.6,144.7c4.6,3.1,12,3.1,16.5,0.1
	c0,0,89.8-56.5,91.8-144.8c0-1,0-2,0-3C230,54.8,185.2,10,130,10z M85,120c-8.3,0-15-6.7-15-15s6.7-15,15-15s15,6.7,15,15
	S93.3,120,85,120z M130,120c-8.3,0-15-6.7-15-15s6.7-15,15-15s15,6.7,15,15S138.3,120,130,120z M175,120c-8.3,0-15-6.7-15-15
	s6.7-15,15-15s15,6.7,15,15S183.3,120,175,120z"/>
</svg>
