<?xml version="1.0" encoding="utf-8"?>
<!-- Generator: Adobe Illustrator 23.0.2, SVG Export Plug-In . SVG Version: 6.00 Build 0)  -->
<svg version="1.1" id="Capa_1" xmlns="http://www.w3.org/2000/svg" xmlns:xlink="http://www.w3.org/1999/xlink" x="0px" y="0px"
	 viewBox="0 0 260 260" style="enable-background:new 0 0 260 260;" xml:space="preserve">
<style type="text/css">
	.st0{fill:none;}
	.st1{fill:#237ABA;}
	.st2{fill-rule:evenodd;clip-rule:evenodd;fill:#237ABA;}
</style>
<title>3_</title>
<polygon class="st0" points="20,56 120,116.3 120,116.3 "/>
<path class="st1" d="M234.5,30H5.5c-3,0-5.5,2.5-5.5,5.5c0,0,0,0,0,0v169c0,3,2.5,5.5,5.5,5.5h117.4c-13.7-21.9-16.6-48.8-8.1-73.1
	L20,79.9V56l100,60.3l0,0l3.8,2.3c25.3-38.8,76.9-50.2,116.2-25.7V35.5C240,32.5,237.5,30,234.5,30z"/>
<path class="st2" d="M260,165c0-35.9-29.1-65-65-65s-65,29.1-65,65s29.1,65,65,65S260,200.9,260,165z M161.4,174.9l7.7-7.7
	l20.2,20.3l-0.2-65.8l10.7,10.8v55.2l20.8-20.7l7.8,7.7l-33.7,33.6L161.4,174.9z"/>
</svg>
