<?xml version="1.0" encoding="utf-8"?>
<!-- Generator: Adobe Illustrator 21.1.0, SVG Export Plug-In . SVG Version: 6.00 Build 0)  -->
<svg version="1.1" id="Capa_1" xmlns="http://www.w3.org/2000/svg" xmlns:xlink="http://www.w3.org/1999/xlink" x="0px" y="0px"
	 viewBox="0 0 260 260" style="enable-background:new 0 0 260 260;" xml:space="preserve">
<style type="text/css">
	.st0{fill:#237ABA;}
</style>
<title>4</title>
<path class="st0" d="M130,10C63.7,10,10,63.7,10,130s53.7,120,120,120s120-53.7,120-120S196.3,10,130,10z M148.2,210
	c-34.9,0.6-48.2-24.8-48.2-42.7V115H84V94.3c24-8.7,30.1-30.6,31.5-43.1c0.1-0.9,0.8-1.2,1.2-1.2H140v41h32v24h-32v49.8
	c0,6.8,2.6,16.1,15.4,15.8c4.2-0.1,9.9-1.3,12.9-2.8l7.6,22.8C173,204.9,159.9,209.8,148.2,210z"/>
</svg>
