<?xml version="1.0" encoding="utf-8"?>
<!-- Generator: Adobe Illustrator 22.0.1, SVG Export Plug-In . SVG Version: 6.00 Build 0)  -->
<svg version="1.1" id="Layer_1" xmlns="http://www.w3.org/2000/svg" xmlns:xlink="http://www.w3.org/1999/xlink" x="0px" y="0px"
	 viewBox="0 0 24 24" style="enable-background:new 0 0 24 24;" xml:space="preserve">
<style type="text/css">
	.st0{fill:#1973B8;}
</style>
<title>PDF</title>
<desc>Created with Sketch.</desc>
<g>
	<path class="st0" d="M4,2c0-0.6,0.5-1,1-1h9l6,6v15c0,0.6-0.4,1-1,1H5c-0.6,0-1-0.4-1-1V2z M7.5,14.6v-1.6H8c1.2,0,1.9-0.4,1.9-1.5
		C10,10.4,9.3,10,8,10H6.3v4.6H7.5z M7.5,12.1V11h0.6c0.5,0,0.7,0.2,0.7,0.5c0,0.4-0.2,0.6-0.7,0.6H7.5z M11.8,14.6
		c1.6,0,2.5-0.8,2.5-2.3c0-1.6-0.9-2.3-2.5-2.3h-1.5v4.6H11.8z M11.6,13.6V11h0.3c0.9,0,1.2,0.4,1.2,1.3c0,1-0.3,1.3-1.2,1.3H11.6z
		 M16,14.6v-1.8h1.6l-0.1-1H16V11h2v-1h-3.1v4.6H16z"/>
</g>
</svg>
