<?xml version="1.0" encoding="utf-8"?>
<!-- Generator: Adobe Illustrator 23.0.2, SVG Export Plug-In . SVG Version: 6.00 Build 0)  -->
<svg version="1.1" id="Capa_1" xmlns="http://www.w3.org/2000/svg" xmlns:xlink="http://www.w3.org/1999/xlink" x="0px" y="0px"
	 viewBox="0 0 260 260" style="enable-background:new 0 0 260 260;" xml:space="preserve">
<style type="text/css">
	.st0{fill:#237ABA;}
	.st1{fill-rule:evenodd;clip-rule:evenodd;fill:#237ABA;}
</style>
<title>5</title>
<polygon class="st0" points="240,10 10,10 10,10.3 10,32.3 10,240 32.3,240 32.3,32.3 240,32.3 "/>
<path class="st1" d="M244.7,129h-9.7l-16.8-57.5c-0.4-1-1.3-1.6-2.4-1.5H88.8c-1-0.1-2,0.6-2.4,1.5L68.8,129h-9.5
	c-5.1,0-9.3,4.6-9.3,9.8v9.3c0,5,4.1,9,9,9c0.1,0,0.2,0,0.2,0H67v73.7c0,5.1,4.1,9.3,9.3,9.3h0H87c5,0,9-4,9-9c0-0.1,0-0.2,0-0.3
	V223h111v7.7c0.1,5.2,4.3,9.3,9.5,9.3h9.3c5.1,0,11.2-4.1,11.2-9.3v-10.3l0,0V157h7.7c5,0.2,9.1-3.7,9.3-8.7c0-0.1,0-0.1,0-0.2v-9.3
	C254,133.6,249.9,129,244.7,129z M101,87h102l12.8,42H88.2L101,87z M99,185c-8.3,0-15-6.7-15-15s6.7-15,15-15s15,6.7,15,15l0,0
	C114,178.3,107.3,185,99,185z M205,185c-8.3,0-15-6.7-15-15s6.7-15,15-15s15,6.7,15,15l0,0C220,178.3,213.3,185,205,185z"/>
</svg>
