<?xml version="1.0" encoding="utf-8"?>
<!-- Generator: Adobe Illustrator 23.0.2, SVG Export Plug-In . SVG Version: 6.00 Build 0)  -->
<svg version="1.1" id="icons" xmlns="http://www.w3.org/2000/svg" xmlns:xlink="http://www.w3.org/1999/xlink" x="0px" y="0px"
	 viewBox="0 0 260 260" style="enable-background:new 0 0 260 260;" xml:space="preserve">
<style type="text/css">
	.st0{fill-rule:evenodd;clip-rule:evenodd;fill:#237ABA;}
</style>
<title>1</title>
<path class="st0" d="M130.4,50c16.6,0,33.2-8.3,33.2-8.3L180.2,0c0,0-33.2,6.7-49.8,6.7S80.6,0,80.6,0l16.6,41.7
	C97.2,41.7,113.8,50,130.4,50z"/>
<path class="st0" d="M175.5,52.1l-0.2,0.4l-5.1,2.6c-2,1-20.3,9.9-39.9,9.9s-37.8-8.9-39.9-9.9L86.3,53
	C64.8,68.3,20.8,102.6,20,150.3C18.6,230,90.6,250,131.5,250c38.7,0,108.4-20,108.5-99.7C240.1,101.7,196.4,67.1,175.5,52.1z
	 M130.4,210c-14.9,0-28.2-6.6-37.4-17l12.6-8.4c6.3,6.4,15.1,10.4,24.8,10.4c19.2,0,34.8-15.7,34.8-35s-15.6-35-34.8-35
	c-13.5,0-25.2,7.7-31,19l0.5,0.3l14.7,7.8l-9.1,4.3l-28.6,12.4l-6.3-40l14.7,7.8l1,0.5c8.3-16,25-27,44.2-27
	c27.5,0,49.8,22.4,49.8,50S157.9,210,130.4,210z"/>
</svg>
