<?xml version="1.0" encoding="utf-8"?>
<!-- Generator: Adobe Illustrator 23.0.2, SVG Export Plug-In . SVG Version: 6.00 Build 0)  -->
<svg version="1.1" id="Capa_1" xmlns="http://www.w3.org/2000/svg" xmlns:xlink="http://www.w3.org/1999/xlink" x="0px" y="0px"
	 viewBox="0 0 260 260" style="enable-background:new 0 0 260 260;" xml:space="preserve">
<style type="text/css">
	.st0{fill:#237ABA;}
	.st1{fill-rule:evenodd;clip-rule:evenodd;fill:#237ABA;}
</style>
<title>5</title>
<rect x="20" y="220" class="st0" width="220" height="20"/>
<polygon class="st1" points="129.6,10 20,70 20,90 240,90 240,70 "/>
<rect x="40" y="110" class="st0" width="40" height="90"/>
<rect x="110" y="110" class="st0" width="40" height="90"/>
<rect x="180" y="110" class="st0" width="40" height="90"/>
</svg>
