<?xml version="1.0" encoding="utf-8"?>
<!-- Generator: Adobe Illustrator 23.0.2, SVG Export Plug-In . SVG Version: 6.00 Build 0)  -->
<svg version="1.1" id="Capa_1" xmlns="http://www.w3.org/2000/svg" xmlns:xlink="http://www.w3.org/1999/xlink" x="0px" y="0px"
	 viewBox="0 0 260 260" style="enable-background:new 0 0 260 260;" xml:space="preserve">
<style type="text/css">
	.st0{fill-rule:evenodd;clip-rule:evenodd;fill:#237ABA;}
</style>
<title>2</title>
<path class="st0" d="M130,10C63.7,10,10,63.7,10,130s53.7,120,120,120s120-53.7,120-120S196.3,10,130,10z M180,140H70v-20h130
	L180,140z"/>
</svg>
