<?xml version="1.0" encoding="utf-8"?>
<!-- Generator: Adobe Illustrator 23.0.2, SVG Export Plug-In . SVG Version: 6.00 Build 0)  -->
<svg version="1.1" id="Capa_1" xmlns="http://www.w3.org/2000/svg" xmlns:xlink="http://www.w3.org/1999/xlink" x="0px" y="0px"
	 viewBox="0 0 260 260" style="enable-background:new 0 0 260 260;" xml:space="preserve">
<style type="text/css">
	.st0{fill:#237ABA;}
</style>
<title>2</title>
<path class="st0" d="M173.1,132.6c-6.7,0-9.3,7.1-9.3,18.9c0,12.2,2.7,19.3,9.4,19.3s9.2-7.4,9.2-19.3S179.6,132.6,173.1,132.6z"/>
<path class="st0" d="M88,94.5c-6.8,0-9.4,7.1-9.4,18.9c0,12.2,2.7,19.4,9.4,19.4s9.2-7.4,9.2-19.3S94.4,94.5,88,94.5z"/>
<path class="st0" d="M130,10C63.7,10,10,63.7,10,130s53.7,120,120,120s120-53.7,120-120S196.3,10,130,10z M60.5,113.6
	C60.5,93.4,71,80.4,88,80.4s27.2,13,27.2,33S105,146.7,88,146.7C70.8,146.7,60.5,133.6,60.5,113.6z M109.7,183.4H90.8l60.5-101.4
	h18.9L109.7,183.4z M173.1,184.8c-17.1,0-27.4-13.3-27.4-33.1c0-20.1,10.5-33.3,27.5-33.3s27.2,13.1,27.2,33.1
	S190.2,184.8,173.1,184.8L173.1,184.8z"/>
</svg>
