<?xml version="1.0" encoding="utf-8"?>
<!-- Generator: Adobe Illustrator 23.0.2, SVG Export Plug-In . SVG Version: 6.00 Build 0)  -->
<svg version="1.1" id="Capa_1" xmlns="http://www.w3.org/2000/svg" xmlns:xlink="http://www.w3.org/1999/xlink" x="0px" y="0px"
	 viewBox="0 0 260 260" style="enable-background:new 0 0 260 260;" xml:space="preserve">
<style type="text/css">
	.st0{fill:#237ABA;}
</style>
<title>5</title>
<path class="st0" d="M130,10c0,0-90,54.6-90,142c0,52.1,48.7,94.3,85,98v-27.7l-48.5-48.5l7.1-7.1l41.5,41.5v-25.9l-48.5-48.5
	l7.1-7.1l41.5,41.5v-25.9l-38.5-38.5l7.1-7.1l31.5,31.5v-25.9l-18.5-18.5l7.1-7.1L125,88.2V50.2h10v37.9l11.5-11.5l7.1,7.1
	L135,102.3v25.9l31.5-31.5l7.1,7.1L135,142.3v25.9l41.5-41.5l7.1,7.1L135,182.3v25.9l41.5-41.5l7.1,7.1L135,222.3V250
	c38.8-3.4,85-45.7,85-98.1C220,64.6,130,10,130,10z"/>
</svg>
