<?xml version="1.0" encoding="utf-8"?>
<!-- Generator: Adobe Illustrator 23.0.2, SVG Export Plug-In . SVG Version: 6.00 Build 0)  -->
<svg version="1.1" id="Capa_1" xmlns="http://www.w3.org/2000/svg" xmlns:xlink="http://www.w3.org/1999/xlink" x="0px" y="0px"
	 viewBox="0 0 260 260" style="enable-background:new 0 0 260 260;" xml:space="preserve">
<style type="text/css">
	.st0{fill:#237ABA;}
</style>
<title>4</title>
<polygon class="st0" points="182.8,120.2 50,120.2 50,200.4 107,200.4 "/>
<circle class="st0" cx="194.7" cy="185.3" r="15"/>
<circle class="st0" cx="155" cy="185.3" r="15"/>
<path class="st0" d="M240,80.3h-19.6l-80.7-80H120l79.7,80H20c-5.5,0-10,4.5-10,10v140c0,5.5,4.5,10,10,10h220c5.5,0,10-4.5,10-10
	v-140C250,84.8,245.5,80.3,240,80.3z M230,220.3H30v-120h200V220.3z"/>
</svg>
