<?xml version="1.0" encoding="UTF-8"?>
<svg width="24px" height="24px" viewBox="0 0 24 24" version="1.1" xmlns="http://www.w3.org/2000/svg" xmlns:xlink="http://www.w3.org/1999/xlink">
    <!-- Generator: Sketch 53.2 (72643) - https://sketchapp.com -->
    <title>Portfolio</title>
    <desc>Created with Sketch.</desc>
    <g id="Portfolio" stroke="none" stroke-width="1" fill="none" fill-rule="evenodd">
        <path d="M7,5 L7,2 C7,1.44771525 7.44771525,1 8,1 L16,1 C16.5522847,1 17,1.44771525 17,2 L17,5 L22,5 C22.5522847,5 23,5.44771525 23,6 L23,20 C23,20.5522847 22.5522847,21 22,21 L2,21 C1.44771525,21 1,20.5522847 1,20 L1,6 C1,5.44771525 1.44771525,5 2,5 L7,5 Z M9,3 L9,5 L15,5 L15,3 L9,3 Z M4,8 L4,10 L10,10 L12,8 L4,8 Z" id="Combined-Shape" fill="#1973B8"></path>
    </g>
</svg>