<?xml version="1.0" encoding="utf-8"?>
<!-- Generator: Adobe Illustrator 23.0.2, SVG Export Plug-In . SVG Version: 6.00 Build 0)  -->
<svg version="1.1" id="Capa_1" xmlns="http://www.w3.org/2000/svg" xmlns:xlink="http://www.w3.org/1999/xlink" x="0px" y="0px"
	 viewBox="0 0 260 260" style="enable-background:new 0 0 260 260;" xml:space="preserve">
<style type="text/css">
	.st0{fill:#237ABA;}
</style>
<title>5</title>
<path class="st0" d="M10,192v36c0,6.6,5.4,12,12,12h28v-60H22C15.4,180,10,185.4,10,192z"/>
<rect x="220" y="180" class="st0" width="30" height="60"/>
<path class="st0" d="M198,170h-46c-7,0-12,5-12,11v58c0,6,5,11,12,11h46c7,0,12-5,12-11v-58C210,175,205,170,198,170z M190,230h-30
	v-40h30V230z"/>
<path class="st0" d="M118,190h-18l-10-20H60v80h30l10-20h18c6.6,0,12-5.4,12-12v-16C130,195.4,124.6,190,118,190z M120,220h-20v-20
	h20V220z"/>
<polygon class="st0" points="250,10 180,10 20,170 50,170 50,160 100,160 "/>
</svg>
