<?xml version="1.0" encoding="utf-8"?>
<!-- Generator: Adobe Illustrator 23.0.2, SVG Export Plug-In . SVG Version: 6.00 Build 0)  -->
<svg version="1.1" id="Capa_1" xmlns="http://www.w3.org/2000/svg" xmlns:xlink="http://www.w3.org/1999/xlink" x="0px" y="0px"
	 viewBox="0 0 260 260" style="enable-background:new 0 0 260 260;" xml:space="preserve">
<style type="text/css">
	.st0{fill:#237ABA;}
</style>
<title>5</title>
<path class="st0" d="M130,10C63.7,10,10,63.7,10,130s53.7,120,120,120s120-53.7,120-120S196.3,10,130,10z M130,220
	c-49.7,0-90-40.3-90-90c0.1-49.7,40.3-89.9,90-90c49.7,0,90,40.3,90,90S179.7,220,130,220z"/>
<path class="st0" d="M130,50c-44.2,0-80,35.8-80,80s35.8,80,80,80s80-35.8,80-80S174.2,50,130,50z M158.3,140h41
	c-1.7,11.9-6.4,22.8-13.2,31.9l-29-29c-3,6.2-8,11.2-14.1,14.1l29,29c-9.2,6.9-20.1,11.5-31.9,13.2v-41c-3.2,1.1-6.6,1.7-10,1.7
	c-3.4,0-6.8-0.6-10-1.7v41c-11.9-1.7-22.8-6.4-31.9-13.2l29-29c-6.2-3-11.2-8-14.1-14.1l-29,29c-6.9-9.2-11.5-20.1-13.2-31.9h41
	c-1.1-3.2-1.7-6.6-1.7-10c0-3.4,0.6-6.8,1.7-10h-41c1.7-11.8,6.4-22.7,13.2-31.9l29,29c3-6.2,8-11.2,14.1-14.2l-29-29
	c9.2-6.9,20-11.5,31.9-13.2v41c3.2-1.1,6.6-1.7,10-1.7c3.4,0,6.8,0.6,10,1.7v-41c11.9,1.7,22.8,6.4,31.9,13.2l-29,29
	c6.2,3,11.2,8,14.2,14.1l29-29c6.9,9.2,11.5,20.1,13.2,31.9h-41C160.6,126.5,160.6,133.5,158.3,140z"/>
<circle class="st0" cx="130" cy="130" r="20"/>
</svg>
