<?xml version="1.0" encoding="utf-8"?>
<!-- Generator: Adobe Illustrator 22.0.1, SVG Export Plug-In . SVG Version: 6.00 Build 0)  -->
<svg version="1.1" id="Capa_1" xmlns="http://www.w3.org/2000/svg" xmlns:xlink="http://www.w3.org/1999/xlink" x="0px" y="0px"
	 viewBox="0 0 260 260" style="enable-background:new 0 0 260 260;" xml:space="preserve">
<style type="text/css">
	.st0{fill:#1973B8;}
</style>
<title>5</title>
<g id="App-Store">
	<path id="icon-apple-store" class="st0" d="M176.2,16c0,6-1.4,12.6-4.2,19.7c-2.8,7.1-7.3,13.7-13.4,19.8
		c-5.2,5.2-10.4,8.6-15.6,10.4c-3.3,1-8.2,1.8-14.9,2.4c0.2-14.2,3.9-26.6,11.2-37s19.3-17.5,36.1-21.4c0.4,1.2,0.6,2.3,0.7,3.2
		C176.1,14.2,176.2,15.1,176.2,16 M132.2,74.1c4.2,0,11.1-1.6,20.7-4.9c9.6-3.3,17.8-4.9,24.9-4.9c11.5,0,21.8,3.1,30.8,9.3
		c5.1,3.6,10.1,8.4,15,14.5c-7.5,6.4-13,12-16.5,17c-6.3,9-9.4,18.9-9.4,29.8c0,11.9,3.3,22.6,10,32.2c6.7,9.6,14.3,15.6,22.8,18.1
		c-3.6,11.5-9.5,23.6-17.7,36.1c-12.5,18.8-24.8,28.3-37.1,28.3c-4.9,0-11.6-1.6-20.2-4.6c-8.6-3.1-15.8-4.6-21.7-4.6
		c-5.9,0-12.8,1.6-20.6,4.9c-7.8,3.2-14.2,4.9-19.1,4.9c-14.7,0-29.2-12.5-43.3-37.4c-14.2-24.6-21.2-48.8-21.2-72.5
		c0-22,5.4-40,16.2-53.8s24.5-20.8,41-20.8c7,0,15.5,1.4,25.5,4.4C122.3,72.7,128.9,74.1,132.2,74.1"/>
</g>
</svg>
