<?xml version="1.0" encoding="utf-8"?>
<!-- Generator: Adobe Illustrator 23.0.2, SVG Export Plug-In . SVG Version: 6.00 Build 0)  -->
<svg version="1.1" id="Capa_1" xmlns="http://www.w3.org/2000/svg" xmlns:xlink="http://www.w3.org/1999/xlink" x="0px" y="0px"
	 viewBox="0 0 260 260" style="enable-background:new 0 0 260 260;" xml:space="preserve">
<style type="text/css">
	.st0{fill:#237ABA;}
</style>
<title>5_icon</title>
<path class="st0" d="M170.2,10h-140c-5.6,0-10.2,4.4-10.3,10v220c0.2,5.6,4.7,10,10.3,10h140c5.4,0,9.7-4.4,9.7-9.7c0,0,0,0,0,0
	c0-0.1,0-0.2,0-0.3v-60h-20v30h-120V30h120v30h20V20c0.2-5.4-4.1-9.8-9.4-10H170.2z M100.2,220c5.5,0,10,4.5,10,10s-4.5,10-10,10
	s-10-4.5-10-10S94.7,220,100.2,220L100.2,220z"/>
<polygon class="st0" points="219.4,79.7 210,89 235,113.8 180.4,113.8 180.4,126.4 234.8,126.2 210.3,150.3 219.6,159.5 260,119.8 
	"/>
<polygon class="st0" points="158.7,112.8 104.3,113 128.8,88.9 119.5,79.7 79.2,119.5 119.8,159.5 129.1,150.2 104.1,125.5 
	158.7,125.5 "/>
</svg>
