<?xml version="1.0" encoding="utf-8"?>
<!-- Generator: Adobe Illustrator 24.1.0, SVG Export Plug-In . SVG Version: 6.00 Build 0)  -->
<svg version="1.1" id="Layer_1" xmlns="http://www.w3.org/2000/svg" xmlns:xlink="http://www.w3.org/1999/xlink" x="0px" y="0px"
	 viewBox="0 0 260 260" style="enable-background:new 0 0 260 260;" xml:space="preserve">
<style type="text/css">
	.st0{fill:#1973B8;}
</style>
<g>
	<path class="st0" d="M200,20c-0.2-11.2-12-10.3-20-10l-10,10h-10V10h-10l-10,10h-10V10h-10l-10,10h-10V10H90L80,20H70V10H60L50,20
		H40V10c-7.8-0.3-20-1.1-20,10v220c0.1,11.1,12,10.3,20,10l10-10h10v10h10l10-10h10v10h10l10-10v-40l90-90V20z M120,120H50v-20h90
		L120,120z M150,80H50V60h120L150,80z"/>
	<path class="st0" d="M236.5,146.5c-7.4-6.8-18.9-24.1-30-13L130,210v30h30l76.5-76.5C241.2,158.8,241.2,151.2,236.5,146.5z"/>
	<polygon class="st0" points="190,240 240,240 240,220 210,220 	"/>
</g>
</svg>
