<?xml version="1.0" encoding="utf-8"?>
<!-- Generator: Adobe Illustrator 21.1.0, SVG Export Plug-In . SVG Version: 6.00 Build 0)  -->
<svg version="1.1" id="Capa_1" xmlns="http://www.w3.org/2000/svg" xmlns:xlink="http://www.w3.org/1999/xlink" x="0px" y="0px"
	 viewBox="0 0 260 260" style="enable-background:new 0 0 260 260;" xml:space="preserve">
<style type="text/css">
	.st0{fill:#237ABA;}
</style>
<title>2</title>
<path class="st0" d="M232.5,22.4l-62.2,17.8l-80-20L24.8,38.9c-2.6,0.7-4.4,3.1-4.4,5.9v186.1c0,4.4,4.5,7.3,8.5,5.6l61.5-26.4
	l80,30l66.3-28.4c2.3-1,3.7-3.2,3.7-5.6V28.3C240.4,24.2,236.5,21.2,232.5,22.4z M170.4,220.1l-80-30v-150l80,20V220.1z"/>
</svg>
