<?xml version="1.0" encoding="utf-8"?>
<!-- Generator: Adobe Illustrator 23.0.2, SVG Export Plug-In . SVG Version: 6.00 Build 0)  -->
<svg version="1.1" id="Capa_1" xmlns="http://www.w3.org/2000/svg" xmlns:xlink="http://www.w3.org/1999/xlink" x="0px" y="0px"
	 viewBox="0 0 260 260" style="enable-background:new 0 0 260 260;" xml:space="preserve">
<style type="text/css">
	.st0{fill:#237ABA;}
</style>
<title>5</title>
<rect x="110.4" y="10" class="st0" width="20" height="60"/>
<rect x="70.4" y="10" class="st0" width="20" height="60"/>
<rect x="150.4" y="10" class="st0" width="20" height="60"/>
<rect x="40.4" y="230" class="st0" width="170" height="20.1"/>
<path class="st0" d="M208.4,90h-158v100c0,16.6,13.4,30,30,30l0,0h70c16.6,0,30-13.4,30-30l0,0v-30h28c6.6,0,12-5.4,12-12v-46
	C220.4,95.4,215,90,208.4,90z M90.2,170l-20-20v-40h20V170z M200.3,140h-19.9v-30h19.9L200.3,140z"/>
</svg>
