<?xml version="1.0" encoding="utf-8"?>
<!-- Generator: Adobe Illustrator 22.0.1, SVG Export Plug-In . SVG Version: 6.00 Build 0)  -->
<svg version="1.1" id="Layer_1" xmlns="http://www.w3.org/2000/svg" xmlns:xlink="http://www.w3.org/1999/xlink" x="0px" y="0px"
	 viewBox="0 0 260 260" style="enable-background:new 0 0 260 260;" xml:space="preserve">
<style type="text/css">
	.st0{fill:#1973BB;}
</style>
<title>BBVA Go ARG@2x</title>
<desc>Created with Sketch.</desc>
<g>
	<path class="st0" d="M87,135l-20,20l13.7,13.7c-3.6,1-7.4,1.6-11.3,1.6c-22.7,0-41.1-18-41.1-40.3c0-22.2,18.4-40.3,41.1-40.3
		c14.4,0,27,7.2,34.4,18.2c7-6.9,14.5-14.2,20.3-19.9c-12.8-15.8-32.5-26-54.7-26C31.1,62,0,92.4,0,130c0,37.6,31.1,68,69.4,68
		c22.2,0,41.9-10.2,54.6-26.1c-1.6-1.6-3.4-3.3-5.1-5L87,135z"/>
	<path class="st0" d="M239.7,81.9c-27-26.6-70.8-26.6-97.8,0C129.3,94.3,93,130,93,130s34.5,33.9,48.9,48.1
		c27,26.5,70.8,26.5,97.8,0C266.7,151.5,266.7,108.5,239.7,81.9z M191.5,170.3c-22.6,0-40.9-18-40.9-40.3s18.3-40.3,40.9-40.3
		s40.9,18,40.9,40.3S214.1,170.3,191.5,170.3z"/>
</g>
</svg>
