<?xml version="1.0" encoding="utf-8"?>
<!-- Generator: Adobe Illustrator 23.0.2, SVG Export Plug-In . SVG Version: 6.00 Build 0)  -->
<svg version="1.1" id="Capa_1" xmlns="http://www.w3.org/2000/svg" xmlns:xlink="http://www.w3.org/1999/xlink" x="0px" y="0px"
	 viewBox="0 0 260 260" style="enable-background:new 0 0 260 260;" xml:space="preserve">
<style type="text/css">
	.st0{fill:#237ABA;}
</style>
<title>2</title>
<polygon class="st0" points="83.3,73.8 69.2,87.9 111.6,130.4 69.2,172.8 83.3,186.9 125.8,144.5 139.9,130.4 125.8,116.2 "/>
<rect x="159.8" y="70" class="st0" width="20" height="120"/>
</svg>
