<?xml version="1.0" encoding="utf-8"?>
<!-- Generator: Adobe Illustrator 23.0.2, SVG Export Plug-In . SVG Version: 6.00 Build 0)  -->
<svg version="1.1" id="Capa_1" xmlns="http://www.w3.org/2000/svg" xmlns:xlink="http://www.w3.org/1999/xlink" x="0px" y="0px"
	 viewBox="0 0 260 260" style="enable-background:new 0 0 260 260;" xml:space="preserve">
<style type="text/css">
	.st0{fill:#237ABA;}
</style>
<title>5</title>
<rect x="80" y="170" class="st0" width="100" height="20"/>
<rect x="80" y="200" class="st0" width="100" height="20"/>
<polygon class="st0" points="140.7,250 100,250 100,230 160.7,230 "/>
<path class="st0" d="M130,10c-44.2,0-80,35.9-80,80.1c0,6.7,0.9,13.4,2.5,19.9L80,160h100l27.5-50c11-42.8-14.8-86.5-57.6-97.5
	C143.4,10.9,136.7,10,130,10z M160,145h-10l16.4-45H93.6l16.4,45h-10L80,90h100L160,145z"/>
</svg>
