<?xml version="1.0" encoding="utf-8"?>
<!-- Generator: Adobe Illustrator 23.0.2, SVG Export Plug-In . SVG Version: 6.00 Build 0)  -->
<svg version="1.1" id="Capa_1" xmlns="http://www.w3.org/2000/svg" xmlns:xlink="http://www.w3.org/1999/xlink" x="0px" y="0px"
	 viewBox="0 0 260 260" style="enable-background:new 0 0 260 260;" xml:space="preserve">
<style type="text/css">
	.st0{fill:#237ABA;}
</style>
<title>5</title>
<polygon class="st0" points="163.7,90 133.7,170 153.5,170 153.5,220 173.5,220 173.5,170 193.5,170 193.5,215.7 193.5,220 
	213.5,220 213.5,170 233.7,170 203.7,90 "/>
<polygon class="st0" points="233.6,144.5 249.9,150 228.9,90 213.5,90 "/>
<polygon class="st0" points="139.9,140 136.7,132.5 153.9,90 138.5,90 129.3,114.7 118.9,90 103.5,90 121.7,135.2 119.9,140 
	123.6,140 133.7,140 "/>
<polygon class="st0" points="34.9,160 34.9,220 54.9,220 54.9,160 74.9,160 74.9,215.7 74.9,220 94.9,220 94.9,160 94.9,90 34.9,90 
	"/>
<circle class="st0" cx="64.9" cy="60" r="20"/>
<circle class="st0" cx="183.8" cy="60" r="20"/>
<path class="st0" d="M209.5,68.1c0,1.4-0.1,2.8-0.3,4.1h14.2c-1.2-12.3-10.6-22.2-22.7-24.1C206.2,53.1,209.5,60.2,209.5,68.1z"/>
<path class="st0" d="M158.1,68.1c0-7.9,3.4-15,8.8-20c-12.1,1.9-21.4,11.8-22.7,24.1h14.2C158.2,70.9,158.1,69.5,158.1,68.1z"/>
<polygon class="st0" points="9.9,160 24.9,145 24.9,90 9.9,90 "/>
</svg>
