<?xml version="1.0" encoding="UTF-8"?>
<svg width="24px" height="24px" viewBox="0 0 24 24" version="1.1" xmlns="http://www.w3.org/2000/svg" xmlns:xlink="http://www.w3.org/1999/xlink">
    <!-- Generator: Sketch 53.2 (72643) - https://sketchapp.com -->
    <title>Card</title>
    <desc>Created with Sketch.</desc>
    <g id="Card" stroke="none" stroke-width="1" fill="none" fill-rule="evenodd">
        <path d="M1,10 L17,10 L19,8 L1,8 L1,5.00087166 C1,4.4481055 1.43945834,4 2.00246167,4 L21.9975383,4 C22.5511826,4 23,4.44463086 23,5.00087166 L23,18.9991283 C23,19.5518945 22.5605417,20 21.9975383,20 L2.00246167,20 C1.44881738,20 1,19.5553691 1,18.9991283 L1,10 Z M14,15 L14,17 L18,17 L20,15 L14,15 Z" id="Icon" fill="#1973B8"></path>
    </g>
</svg>