<?xml version="1.0" encoding="utf-8"?>
<!-- Generator: Adobe Illustrator 23.0.2, SVG Export Plug-In . SVG Version: 6.00 Build 0)  -->
<svg version="1.1" id="Capa_1" xmlns="http://www.w3.org/2000/svg" xmlns:xlink="http://www.w3.org/1999/xlink" x="0px" y="0px"
	 viewBox="0 0 260 260" style="enable-background:new 0 0 260 260;" xml:space="preserve">
<style type="text/css">
	.st0{fill:#237ABA;}
</style>
<title>5</title>
<path class="st0" d="M219.1,140V22.2c0-6.6-5.4-12-12-12H51.6c-6.6,0-12,5.4-12,12V140H19.8v102.4H20v8.1h220V140H219.1z M100.1,160
	v70.5H79.8V160H100.1z M120,160h20.3v70.5H120V160z M160.2,160h20.3v70.5h-20.3V160z M199.1,140h-59.5V30.2h59.5V140z M59.6,30.2h60
	V140h-60L59.6,30.2z M59.9,160v70.5H39.7V160H59.9z M220.1,230.5h-19.6V160h19.6V230.5z"/>
</svg>
