<?xml version="1.0" encoding="utf-8"?>
<!-- Generator: Adobe Illustrator 23.0.2, SVG Export Plug-In . SVG Version: 6.00 Build 0)  -->
<svg version="1.1" id="Capa_1" xmlns="http://www.w3.org/2000/svg" xmlns:xlink="http://www.w3.org/1999/xlink" x="0px" y="0px"
	 viewBox="0 0 260 260" style="enable-background:new 0 0 260 260;" xml:space="preserve">
<style type="text/css">
	.st0{fill:#237ABA;}
</style>
<title>4</title>
<path class="st0" d="M159.1,125.1c-0.4,2.4-1,4.9-1.8,7.2c-0.8,2.5-3.2,4.1-5.7,4.1c-0.6,0-1.3-0.1-1.9-0.3c-3.1-1-4.8-4.4-3.8-7.6
	c1.2-3.6,1.8-7.3,1.8-11.1c0-19.6-15.9-35.5-35.5-35.5c-14.1,0-26.7,8.3-32.4,20.8c5.5,1.4,10.6,4.2,14.7,8.3c2.3,2.3,2.3,6.1,0,8.5
	c-2.3,2.3-6.1,2.3-8.5,0c-3.8-3.8-8.8-5.8-14.1-5.8c-11,0-20,9.2-20,20.1c0,11,9,20.1,20,20.1h81.8c8.1,0,14.8-6.8,14.8-14.9
	C168.5,132.8,164.6,127.3,159.1,125.1z"/>
<path class="st0" d="M130,10C63.7,10,10,63.7,10,130s53.7,120,120,120s120-53.7,120-120S196.3,10,130,10z M153.7,166H71.9
	C54.3,166,40,151.5,40,133.9c0-16,11.9-29.3,27.2-31.6c6.5-19.1,24.6-32.2,44.9-32.2c24.6,0,44.9,18.8,47.3,42.7
	c12,2.6,21,13.5,21,26.3C180.4,153.8,168.4,166,153.7,166z M187.4,166.4c-1.2,0-2.3-0.3-3.3-1c-2.7-1.9-3.5-5.6-1.6-8.3
	c3.6-5.4,5.6-11.7,5.6-18.2s-1.9-12.8-5.6-18.2c-1.9-2.7-1.1-6.5,1.6-8.3c2.7-1.9,6.5-1.1,8.3,1.6c5,7.4,7.6,16,7.6,24.9
	s-2.6,17.5-7.6,24.9C191.2,165.4,189.4,166.4,187.4,166.4z M209.5,173.4c-1.2,1.7-3,2.7-5,2.7c-1.1,0-2.3-0.3-3.3-1
	c-2.7-1.8-3.5-5.6-1.6-8.3c5.5-8.2,8.4-17.9,8.4-27.9s-2.9-19.7-8.4-27.9c-1.8-2.7-1.1-6.5,1.6-8.3c2.7-1.8,6.5-1.1,8.3,1.6
	c6.9,10.2,10.5,22.2,10.5,34.6C220,151.2,216.4,163.2,209.5,173.4z"/>
</svg>
