<?xml version="1.0" encoding="utf-8"?>
<!-- Generator: Adobe Illustrator 23.0.2, SVG Export Plug-In . SVG Version: 6.00 Build 0)  -->
<svg version="1.1" id="Capa_1" xmlns="http://www.w3.org/2000/svg" xmlns:xlink="http://www.w3.org/1999/xlink" x="0px" y="0px"
	 viewBox="0 0 260 260" style="enable-background:new 0 0 260 260;" xml:space="preserve">
<style type="text/css">
	.st0{fill:#237ABA;}
</style>
<title>5</title>
<path class="st0" d="M190,120.4H70c-33.1,0-60,26.9-60,60s26.9,60,60,60c21.4,0,41.2-11.4,51.9-30h16c16.6,28.7,53.3,38.5,82,22
	s38.5-53.3,22-82C231.2,131.9,211.4,120.4,190,120.4z M100,190.4H80v20H60v-20H40v-20h20v-20h20v20h20V190.4z M175,210.4
	c-8.3,0-15-6.7-15-15s6.7-15,15-15s15,6.7,15,15l0,0C190,203.7,183.3,210.4,175,210.4z M215,180.4c-8.3,0-15-6.7-15-15s6.7-15,15-15
	s15,6.7,15,15S223.3,180.4,215,180.4L215,180.4z"/>
<path class="st0" d="M240,10.4v50c0,11-9,20-20,20s-20-9-20-20c0-22.1-17.9-40-40-40c-22.1,0-40,17.9-40,40v50h20v-50
	c0-11,9-20,20-20s20,9,20,20c0,22.1,17.9,40,40,40s40-17.9,40-40v-50L240,10.4z"/>
</svg>
