<?xml version="1.0" encoding="UTF-8"?>
<svg width="24px" height="24px" viewBox="0 0 24 24" version="1.1" xmlns="http://www.w3.org/2000/svg" xmlns:xlink="http://www.w3.org/1999/xlink">
    <!-- Generator: Sketch 53.2 (72643) - https://sketchapp.com -->
    <title>ATM</title>
    <desc>Created with Sketch.</desc>
    <g id="ATM" stroke="none" stroke-width="1" fill="none" fill-rule="evenodd">
        <path d="M16,6 L19,6 L19,8 L21,8 L21,4 L3,4 L3,8 L5,8 L5,6 L14,6 L14,18 L16,20 L16,6 Z M19,10 L19,22 C19,22.5522847 18.5522847,23 18,23 L6,23 C5.44771525,23 5,22.5522847 5,22 L5,10 L1,10 L1,2 L23,2 L23,10 L19,10 Z M9,21 L9,16 L7,16 L7,19 L9,21 Z" id="Combined-Shape" fill="#1973B8"></path>
    </g>
</svg>