<?xml version="1.0" encoding="utf-8"?>
<!-- Generator: Adobe Illustrator 23.0.2, SVG Export Plug-In . SVG Version: 6.00 Build 0)  -->
<svg version="1.1" id="Capa_1" xmlns="http://www.w3.org/2000/svg" xmlns:xlink="http://www.w3.org/1999/xlink" x="0px" y="0px"
	 viewBox="0 0 260 260" style="enable-background:new 0 0 260 260;" xml:space="preserve">
<style type="text/css">
	.st0{fill-rule:evenodd;clip-rule:evenodd;fill:#237ABA;}
</style>
<title>4</title>
<path id="icon-share" class="st0" d="M108.1,142.1l50.2,33.5c13.5-17.5,38.6-20.7,56.1-7.2s20.7,38.6,7.2,56.1s-38.6,20.7-56.1,7.2
	c-9.8-7.6-15.6-19.3-15.6-31.7c0-1.1,0-2.2,0.1-3.2l-54.3-36.2c-16.9,14.3-42.1,12.1-56.4-4.7s-12.1-42.1,4.7-56.4
	c14.9-12.6,36.7-12.6,51.6,0l54.3-36.2c-0.1-1.1-0.1-2.2-0.1-3.3c0-22.1,17.9-40,40-40s40,17.9,40,40s-17.9,40-40,40
	c-12.4,0-24.1-5.8-31.7-15.6l-50.2,33.5C110.6,125.8,110.6,134.2,108.1,142.1L108.1,142.1z"/>
</svg>
