<?xml version="1.0" encoding="utf-8"?>
<!-- Generator: Adobe Illustrator 23.0.2, SVG Export Plug-In . SVG Version: 6.00 Build 0)  -->
<svg version="1.1" id="Capa_1" xmlns="http://www.w3.org/2000/svg" xmlns:xlink="http://www.w3.org/1999/xlink" x="0px" y="0px"
	 viewBox="0 0 260 260" style="enable-background:new 0 0 260 260;" xml:space="preserve">
<style type="text/css">
	.st0{fill:#237ABA;}
</style>
<title>4</title>
<path class="st0" d="M130.4,10c-60.8,0-110,49-110,109.4c0,57.5,52.1,104.2,110,104.2V260c66.6-32.3,110-85.6,110-140.6
	C240.4,59,191.2,10,130.4,10z M122.2,137c0,14.4-9.3,26-20.8,26v-26h-26V90.1h46.9L122.2,137z M185.6,137c0,14.4-9.3,26-20.8,26v-26
	h-26V90.1h46.9L185.6,137z"/>
</svg>
