<?xml version="1.0" encoding="utf-8"?>
<!-- Generator: Adobe Illustrator 23.0.2, SVG Export Plug-In . SVG Version: 6.00 Build 0)  -->
<svg version="1.1" id="Capa_1" xmlns="http://www.w3.org/2000/svg" xmlns:xlink="http://www.w3.org/1999/xlink" x="0px" y="0px"
	 viewBox="0 0 260 260" style="enable-background:new 0 0 260 260;" xml:space="preserve">
<style type="text/css">
	.st0{fill:#237ABA;}
</style>
<title>6</title>
<path class="st0" d="M228,20H32c-6.6,0-12,5.4-12,12v196c0,6.6,5.4,12,12,12h196c6.6,0,12-5.4,12-12V32C240,25.4,234.6,20,228,20z
	 M157.9,196.1L129.6,149l-26.5,45H73.4l41-67.6L78.3,68.1l29.6-4.2l23.9,40.7L153.5,66h29.2l-36.5,60.6l40.3,65.4L157.9,196.1z"/>
</svg>
