<?xml version="1.0" encoding="utf-8"?>
<!-- Generator: Adobe Illustrator 22.0.1, SVG Export Plug-In . SVG Version: 6.00 Build 0)  -->
<svg version="1.1" id="Layer_1" xmlns="http://www.w3.org/2000/svg" xmlns:xlink="http://www.w3.org/1999/xlink" x="0px" y="0px"
	 viewBox="0 0 24 24" style="enable-background:new 0 0 24 24;" xml:space="preserve">
<style type="text/css">
	.st0{fill:#1973B8;}
</style>
<title>Receipt-Euro</title>
<desc>Created with Sketch.</desc>
<g>
	<path class="st0" d="M9,1h1v1h1l1-1h1v1h1l1-1h1v1h1l1-1h1c0.6,0,1,0.4,1,1v20c0,0.6-0.4,1-1,1h-2v-1h-1l-1,1h-1v-1h-1l-1,1h-1v-1
		h-1l-1,1H8v-1H7l-1,1H5c-0.6,0-1-0.4-1-1V2c0-0.6,0.4-1,1-1h2v1h1L9,1z M13,10.2H9c0.7-1.1,1.9-1.8,3.3-1.8c1,0,2,0.4,2.7,1l1.1-1
		C15,7.6,13.7,7,12.3,7C9.5,7,7.2,9,7,11.6l0,0h0c0,0.1,0,0.2,0,0.4c0,2.8,2.4,5,5.3,5c1.5,0,2.8-0.6,3.7-1.5l-1.1-1
		c-0.7,0.6-1.6,1-2.7,1c-1.4,0-2.6-0.7-3.3-1.8h2.5l1.5-1.4H8.5c0-0.1,0-0.2,0-0.4s0-0.2,0-0.4h3L13,10.2z"/>
</g>
</svg>
