<?xml version="1.0" encoding="utf-8"?>
<!-- Generator: Adobe Illustrator 23.0.2, SVG Export Plug-In . SVG Version: 6.00 Build 0)  -->
<svg version="1.1" id="Capa_1" xmlns="http://www.w3.org/2000/svg" xmlns:xlink="http://www.w3.org/1999/xlink" x="0px" y="0px"
	 viewBox="0 0 260 260" style="enable-background:new 0 0 260 260;" xml:space="preserve">
<style type="text/css">
	.st0{fill:#237ABA;}
</style>
<title>5</title>
<polygon class="st0" points="219,140 189,10 69,10 39,140 169,140 169,190 189,170 189,140 "/>
<polygon class="st0" points="139,160 119,160 119,230 69,230 69,250 189,250 189,230 139,230 "/>
</svg>
