<?xml version="1.0" encoding="utf-8"?>
<!-- Generator: Adobe Illustrator 23.0.2, SVG Export Plug-In . SVG Version: 6.00 Build 0)  -->
<svg version="1.1" id="Capa_1" xmlns="http://www.w3.org/2000/svg" xmlns:xlink="http://www.w3.org/1999/xlink" x="0px" y="0px"
	 viewBox="0 0 260 260" style="enable-background:new 0 0 260 260;" xml:space="preserve">
<style type="text/css">
	.st0{fill:#237ABA;}
	.st1{fill-rule:evenodd;clip-rule:evenodd;fill:#237ABA;}
</style>
<title>3</title>
<path class="st0" d="M240.2,20h-220c-5.5,0-10,4.5-10,10v160c0,5.5,4.5,10,10,10h220c5.5,0,10-4.5,10-10V30
	C250.2,24.5,245.8,20,240.2,20z M230.2,180h-200V40h200V180z"/>
<polygon class="st1" points="200.2,60 50.2,60 50.2,160 100.2,160 "/>
<rect x="0.2" y="220" class="st0" width="260" height="20"/>
</svg>
