<?xml version="1.0" encoding="utf-8"?>
<!-- Generator: Adobe Illustrator 23.0.2, SVG Export Plug-In . SVG Version: 6.00 Build 0)  -->
<svg version="1.1" id="Capa_1" xmlns="http://www.w3.org/2000/svg" xmlns:xlink="http://www.w3.org/1999/xlink" x="0px" y="0px"
	 viewBox="0 0 260 260" style="enable-background:new 0 0 260 260;" xml:space="preserve">
<style type="text/css">
	.st0{fill:#237ABA;}
</style>
<title>2</title>
<path class="st0" d="M195.5,66.5c16.2,16.3,26.3,38.7,26.3,63.5c0,49.7-40.3,90-90,90s-90-40.3-90-90c0-24.7,9.9-47.1,26.1-63.3
	L46.6,45.5C25.1,67.2,11.8,97,11.8,130c0,66.3,53.7,120,120,120s120-53.7,120-120c0-33.1-13.4-63-35-84.7L195.5,66.5z"/>
<polygon class="st0" points="116.8,10 116.8,114.6 144.8,86.3 144.8,10 "/>
</svg>
