<?xml version="1.0" encoding="utf-8"?>
<!-- Generator: Adobe Illustrator 23.0.2, SVG Export Plug-In . SVG Version: 6.00 Build 0)  -->
<svg version="1.1" id="Capa_1" xmlns="http://www.w3.org/2000/svg" xmlns:xlink="http://www.w3.org/1999/xlink" x="0px" y="0px"
	 viewBox="0 0 260 260" style="enable-background:new 0 0 260 260;" xml:space="preserve">
<style type="text/css">
	.st0{fill:#237ABA;}
</style>
<title>4</title>
<path class="st0" d="M90,216l11,24c0.9,0,57.1,0,58,0l10-24C146.6,195.7,112.4,195.7,90,216z"/>
<path class="st0" d="M250,20h-30l-63,63l-27.6,27.6l0,0l-35.6,35.6l0,0l-11.5,11.5L30,210h30l27-27c28.9-18.8,67.1-16.8,94,5.9
	l12-29c-18.9-13.2-41-19.9-63.1-19.8l26.6-26.6c16.7,3.5,32.8,10.3,47.5,20.4l12-28c-11.1-7.1-22.9-12.7-35.1-16.8L204,66
	c8.2,3.7,16.2,7.9,24,12.9l12-28c-4.4-2.7-8.8-5.1-13.3-7.5L250,20z"/>
<path class="st0" d="M157.7,52.3l25.5-25.5C128.6,12.6,69.7,20.6,20,50.8l12,28C70,54.5,114.8,45.7,157.7,52.3z"/>
<path class="st0" d="M55,133.9c12.3-8.5,25.7-14.7,39.6-18.5l34.7-34.7c-30,0-60,8.4-86.4,25.2L55,133.9z"/>
</svg>
