<?xml version="1.0" encoding="utf-8"?>
<!-- Generator: Adobe Illustrator 23.0.2, SVG Export Plug-In . SVG Version: 6.00 Build 0)  -->
<svg version="1.1" id="Capa_1" xmlns="http://www.w3.org/2000/svg" xmlns:xlink="http://www.w3.org/1999/xlink" x="0px" y="0px"
	 viewBox="0 0 260 260" style="enable-background:new 0 0 260 260;" xml:space="preserve">
<style type="text/css">
	.st0{fill:#237ABA;}
</style>
<title>5</title>
<path class="st0" d="M92,70h76c6.4,0.2,11.8-4.9,12-11.3c0,0,0,0,0,0c0-0.1,0-0.2,0-0.3V10h-20v19.9h-20V10h-19.9v19.9h-20V10H80
	v48.4C80,64.8,85.3,70,91.7,70c0,0,0,0,0,0H92z"/>
<polygon class="st0" points="170,189.9 160,189.9 160,100.1 170,100.1 170,80 90,80 90,100.1 100.1,100.1 100.1,189.9 90,189.9 
	70,210 190,210 "/>
<path class="st0" d="M188,220H72c-6.6,0-12,5.4-12,12v18h140v-18C200,225.4,194.6,220,188,220z"/>
</svg>
