<?xml version="1.0" encoding="utf-8"?>
<!-- Generator: Adobe Illustrator 22.0.1, SVG Export Plug-In . SVG Version: 6.00 Build 0)  -->
<svg version="1.1" id="Capa_1" xmlns="http://www.w3.org/2000/svg" xmlns:xlink="http://www.w3.org/1999/xlink" x="0px" y="0px"
	 viewBox="0 0 260 260" style="enable-background:new 0 0 260 260;" xml:space="preserve">
<style type="text/css">
	.st0{fill:#237ABA;}
</style>
<title>5</title>
<g>
	<path class="st0" d="M130,10c-44.2,0-80,35.5-80,79.3c0.1,32.4,19.8,61.5,49.9,73.5V250l30.2-29.5l30.3,29.5v-87.3
		c29.9-12.1,49.5-41.1,49.6-73.4C210,45.5,174.2,10,130,10z M130.8,118.2c-17.5-0.2-31.5-14.5-31.3-32s14.5-31.5,32-31.3
		c17.4,0.2,31.3,14.3,31.3,31.7C162.8,104.1,148.4,118.3,130.8,118.2z"/>
</g>
</svg>
