<?xml version="1.0" encoding="utf-8"?>
<!-- Generator: Adobe Illustrator 22.0.1, SVG Export Plug-In . SVG Version: 6.00 Build 0)  -->
<svg version="1.1" id="Capa_1" xmlns="http://www.w3.org/2000/svg" xmlns:xlink="http://www.w3.org/1999/xlink" x="0px" y="0px"
	 viewBox="0 0 260 260" style="enable-background:new 0 0 260 260;" xml:space="preserve">
<style type="text/css">
	.st0{fill:#237ABA;}
</style>
<g>
	<path class="st0" d="M228,20H32c-6.6,0-12,5.4-12,12v196c0,6.6,5.4,12,12,12h196c6.6,0,12-5.4,12-12V32C240,25.4,234.6,20,228,20z
		 M199.8,130l0.1-55.7l-0.1-0.1L74.3,199.9l55.7-0.1V220l-89.9-0.1L40,130h20.2l-0.1,55.7l0.1,0.1L185.7,60.1L130,60.2V40l89.9,0.1
		L220,130H199.8z"/>
</g>
</svg>
