<?xml version="1.0" encoding="utf-8"?>
<!-- Generator: Adobe Illustrator 22.0.1, SVG Export Plug-In . SVG Version: 6.00 Build 0)  -->
<svg version="1.1" id="Capa_3" xmlns="http://www.w3.org/2000/svg" xmlns:xlink="http://www.w3.org/1999/xlink" x="0px" y="0px"
	 viewBox="0 0 261 261" style="enable-background:new 0 0 261 261;" xml:space="preserve">
<style type="text/css">
	.st0{fill:#237ABA;}
</style>
<g>
	<path class="st0" d="M250,208.7l0.1-0.1c-29.4-33.1-72.3-54-120-54c-47.8,0-90.6,20.9-120,54l0.2,0.1v2.8c0,0.4,0,0.9,0,1.4v23.4
		c-0.2,2.9,2.2,5.1,5.1,4.8l57.3-5c2.9-0.3,5.2-2.8,5.2-5.7v-9.1c0-0.6,0-1.2,0-1.8v-18.8c15.6-7.3,33.9-11.4,52.1-11.4
		c18.7,0,36.5,4.1,52.1,11.4v18.8c0,0.6,0,1.2,0,1.8v9.1c0,2.9,2.4,5.4,5.3,5.7l57.3,5c2.9,0.3,5.2-1.9,5.2-4.8v-23.4
		c0-0.5,0.1-0.9,0-1.4L250,208.7L250,208.7z"/>
	<polygon class="st0" points="130,131.2 200,61.2 180,41.2 130,91.2 100,61.2 120,41.2 60,41.2 60,101.2 80,81.2 	"/>
</g>
</svg>
