<?xml version="1.0" encoding="utf-8"?>
<!-- Generator: Adobe Illustrator 22.0.1, SVG Export Plug-In . SVG Version: 6.00 Build 0)  -->
<svg version="1.1" id="Layer_1" xmlns="http://www.w3.org/2000/svg" xmlns:xlink="http://www.w3.org/1999/xlink" x="0px" y="0px"
	 viewBox="0 0 24 24" style="enable-background:new 0 0 24 24;" xml:space="preserve">
<style type="text/css">
	.st0{fill:#1973B8;}
</style>
<title>Frecuency</title>
<desc>Created with Sketch.</desc>
<g>
	<path class="st0" d="M10,21.9l0,0.1H3l1.8-2.5c-2.3-1.9-3.8-4.8-3.8-8C1,5.7,5.7,1,11.5,1S22,5.7,22,11.5l0,0.3
		c-0.8-0.6-1.6-1.1-2.6-1.4c-0.5-3.9-3.9-6.9-7.9-6.9c-4.4,0-8,3.6-8,8c0,2.4,1,4.5,2.7,6L8,15l1.9,6.7L10,21.9L10,21.9z M23,18
		c0,3.3-2.7,6-6,6s-6-2.7-6-6s2.7-6,6-6S23,14.7,23,18z M17.5,15.3l-1.1-1.1v4.4h2.2l1.1-1.1h-2.2V15.3z"/>
</g>
</svg>
