<?xml version="1.0" encoding="utf-8"?>
<!-- Generator: Adobe Illustrator 23.0.2, SVG Export Plug-In . SVG Version: 6.00 Build 0)  -->
<svg version="1.1" id="Capa_1" xmlns="http://www.w3.org/2000/svg" xmlns:xlink="http://www.w3.org/1999/xlink" x="0px" y="0px"
	 viewBox="0 0 260 260" style="enable-background:new 0 0 260 260;" xml:space="preserve">
<style type="text/css">
	.st0{fill:#237ABA;}
</style>
<title>3</title>
<path class="st0" d="M160,10H46c-3.3,0-6,2.7-6,6v227c0,3.5,2.5,6.5,6,7h168c3.1-0.4,5.6-2.9,6-6V70L160,10z M60,70h100l-20,20H60
	V70z M60,110h60l-20,20H60V110z M131,225l-38-38l14-14l22,22l53-62l15,13L131,225z"/>
</svg>
