<?xml version="1.0" encoding="UTF-8"?>
<svg width="24px" height="24px" viewBox="0 0 24 24" version="1.1" xmlns="http://www.w3.org/2000/svg" xmlns:xlink="http://www.w3.org/1999/xlink">
    <!-- Generator: Sketch 53.2 (72643) - https://sketchapp.com -->
    <title>Graphics</title>
    <desc>Created with Sketch.</desc>
    <g id="Graphics" stroke="none" stroke-width="1" fill="none" fill-rule="evenodd">
        <path d="M2,2.99180311 C2,2.44404538 2.45530558,2 2.99180311,2 L21.0081969,2 C21.5559546,2 22,2.45530558 22,2.99180311 L22,21.0081969 C22,21.5559546 21.5446944,22 21.0081969,22 L2.99180311,22 C2.44404538,22 2,21.5446944 2,21.0081969 L2,2.99180311 Z M16,12 L16,20 L20,20 L20,8 L16,12 Z M10,8 L10,20 L14,20 L14,4 L10,8 Z M4,16 L4,20 L8,20 L8,12 L4,16 Z" id="icon-graphics" fill="#1973B8"></path>
    </g>
</svg>