<?xml version="1.0" encoding="utf-8"?>
<!-- Generator: Adobe Illustrator 22.0.1, SVG Export Plug-In . SVG Version: 6.00 Build 0)  -->
<svg version="1.1" id="Layer_1" xmlns="http://www.w3.org/2000/svg" xmlns:xlink="http://www.w3.org/1999/xlink" x="0px" y="0px"
	 viewBox="0 0 24 24" style="enable-background:new 0 0 24 24;" xml:space="preserve">
<style type="text/css">
	.st0{fill:#1973B8;}
</style>
<title>Limits</title>
<desc>Created with Sketch.</desc>
<g>
	<path class="st0" d="M10,15.8l0,0.2c0,1.1,0.9,2,2,2l0.1,0l0,0l0,0c1.1-0.1,1.9-0.9,1.9-2c0-0.1,0-0.2,0-0.3l3-3.7l-0.9-1l-3.8,3
		c-0.1,0-0.2,0-0.3,0C11,14,10.1,14.8,10,15.8L10,15.8L10,15.8z M4.5,21C2.3,19,1,16.2,1,13C1,6.9,5.9,2,12,2s11,4.9,11,11
		c0,3.2-1.3,6-3.5,8H4.5z M5.3,19h3.1c-2-1.2-3.4-3.5-3.4-6c0-3.9,3.1-7,7-7c2.3,0,4.4,1.1,5.6,2.9l1.5-1.4C17.5,5.4,14.9,4,12,4
		c-5,0-9,4-9,9C3,15.3,3.9,17.4,5.3,19z M20,13c0.6,0,1-0.4,1-1s-0.4-1-1-1s-1,0.4-1,1S19.4,13,20,13z M19,18c0.6,0,1-0.4,1-1
		s-0.4-1-1-1s-1,0.4-1,1S18.4,18,19,18z"/>
</g>
</svg>
