<?xml version="1.0" encoding="UTF-8"?>
<svg width="24px" height="24px" viewBox="0 0 24 24" version="1.1" xmlns="http://www.w3.org/2000/svg" xmlns:xlink="http://www.w3.org/1999/xlink">
    <!-- Generator: Sketch 53.2 (72643) - https://sketchapp.com -->
    <title>Print</title>
    <desc>Created with Sketch.</desc>
    <g id="Print" stroke="none" stroke-width="1" fill="none" fill-rule="evenodd">
        <path d="M20,6 L23,6 L23,17 C23,17.5522847 22.5522847,18 22,18 L20,18 L20,22 C20,22.5522847 19.5522847,23 19,23 L5,23 C4.44771525,23 4,22.5522847 4,22 L4,18 L2,18 C1.44771525,18 1,17.5522847 1,17 L1,6 L4,6 L4,2 C4,1.44771525 4.44771525,1 5,1 L19,1 C19.5522847,1 20,1.44771525 20,2 L20,6 Z M6,3 L6,6 L18,6 L18,3 L6,3 Z M16,8 L16,10 L19,10 L21,8 L16,8 Z M6,15 L6,21 L18,21 L18,15 L6,15 Z M8,17 L15,17 L13,19 L8,19 L8,17 Z" id="Combined-Shape" fill="#1973B8"></path>
    </g>
</svg>