<?xml version="1.0" encoding="utf-8"?>
<!-- Generator: Adobe Illustrator 23.0.2, SVG Export Plug-In . SVG Version: 6.00 Build 0)  -->
<svg version="1.1" id="Capa_1" xmlns="http://www.w3.org/2000/svg" xmlns:xlink="http://www.w3.org/1999/xlink" x="0px" y="0px"
	 viewBox="0 0 260 260" style="enable-background:new 0 0 260 260;" xml:space="preserve">
<style type="text/css">
	.st0{fill:#237ABA;}
</style>
<title>5</title>
<rect x="10" y="220" class="st0" width="220" height="24"/>
<path class="st0" d="M243.7,20H20v137c0,28.5,22.9,44,51.2,44h74.2c28.3,0,54.5-15.4,54.5-44v-47h43.7c3.5-0.1,6.3-3,6.3-6.5V28.3
	C250,24.8,247.2,20,243.7,20z M50,97.9V50h20v70L50,97.9z M230,90h-30V40h30V90z"/>
</svg>
